{
	"info": {
		"_postman_id": "c680c4a2-c9fa-4074-958a-ada0ca0fc1af",
		"name": "financiapp",
		"schema": "https://schema.getpostman.com/json/collection/v2.1.0/collection.json"
	},
	"item": [
		{
			"name": "cartera",
			"item": [
				{
					"name": "localhost:8097/api/porcentaje",
					"request": {
						"method": "GET",
						"header": [],
						"url": {
							"raw": "localhost:8097/api/porcentaje",
							"host": [
								"localhost"
							],
							"port": "8097",
							"path": [
								"api",
								"porcentaje"
							]
						}
					},
					"response": [
						{
							"name": "localhost:8097/api/porcentaje",
							"originalRequest": {
								"method": "GET",
								"header": [],
								"url": {
									"raw": "localhost:8097/api/porcentaje",
									"host": [
										"localhost"
									],
									"port": "8097",
									"path": [
										"api",
										"porcentaje"
									]
								}
							},
							"status": "OK",
							"code": 200,
							"_postman_previewlanguage": "json",
							"header": [
								{
									"key": "Content-Type",
									"value": "application/json;charset=UTF-8"
								},
								{
									"key": "Transfer-Encoding",
									"value": "chunked"
								},
								{
									"key": "Date",
									"value": "Tue, 28 May 2019 05:24:12 GMT"
								}
							],
							"cookie": [],
							"body": "[\n    {\n        \"nombreActivo\": \"S31Y9 | LECAP\",\n        \"porcentajeActivo\": 79.76\n    },\n    {\n        \"nombreActivo\": \"ALPHA AHORRO\",\n        \"porcentajeActivo\": 20.23\n    }\n]"
						}
					]
				},
				{
					"name": "localhost:8097/api/tipo-moneda",
					"request": {
						"method": "GET",
						"header": [],
						"url": {
							"raw": "localhost:8097/api/tipo-moneda",
							"host": [
								"localhost"
							],
							"port": "8097",
							"path": [
								"api",
								"tipo-moneda"
							]
						}
					},
					"response": [
						{
							"name": "localhost:8097/api/tipo-moneda",
							"originalRequest": {
								"method": "GET",
								"header": [],
								"url": {
									"raw": "localhost:8097/api/tipo-moneda",
									"host": [
										"localhost"
									],
									"port": "8097",
									"path": [
										"api",
										"tipo-moneda"
									]
								}
							},
							"status": "OK",
							"code": 200,
							"_postman_previewlanguage": "json",
							"header": [
								{
									"key": "Content-Type",
									"value": "application/json;charset=UTF-8"
								},
								{
									"key": "Transfer-Encoding",
									"value": "chunked"
								},
								{
									"key": "Date",
									"value": "Tue, 28 May 2019 05:23:51 GMT"
								}
							],
							"cookie": [],
							"body": "[\n    \"ARS\",\n    \"USD\"\n]"
						}
					]
				},
				{
					"name": "localhost:8097/api/cartera",
					"request": {
						"method": "GET",
						"header": [],
						"url": {
							"raw": "localhost:8097/api/cartera",
							"host": [
								"localhost"
							],
							"port": "8097",
							"path": [
								"api",
								"cartera"
							]
						}
					},
					"response": [
						{
							"name": "localhost:8097/api/cartera",
							"originalRequest": {
								"method": "GET",
								"header": [],
								"url": {
									"raw": "localhost:8097/api/cartera",
									"host": [
										"localhost"
									],
									"port": "8097",
									"path": [
										"api",
										"cartera"
									]
								}
							},
							"status": "OK",
							"code": 200,
							"_postman_previewlanguage": "json",
							"header": [
								{
									"key": "Content-Type",
									"value": "application/json;charset=UTF-8"
								},
								{
									"key": "Transfer-Encoding",
									"value": "chunked"
								},
								{
									"key": "Date",
									"value": "Tue, 28 May 2019 05:23:09 GMT"
								}
							],
							"cookie": [],
							"body": "[\n    {\n        \"nombre\": \"ALPHA AHORRO\",\n        \"fechaInicial\": \"2019-02-22\",\n        \"montoInicial\": \"73000.00\",\n        \"fechaActual\": \"2019-05-28\",\n        \"montoActual\": \"75631.04\",\n        \"gananciaParcial\": \"178.11\",\n        \"gananciaTotal\": \"2631.04\",\n        \"moneda\": \"ARS\",\n        \"id\": 3\n    },\n    {\n        \"nombre\": \"S31Y9 | LECAP\",\n        \"fechaInicial\": \"2019-02-22\",\n        \"montoInicial\": \"287794.20\",\n        \"fechaActual\": \"2019-05-24\",\n        \"montoActual\": \"316905.27\",\n        \"gananciaParcial\": \"2456.63\",\n        \"gananciaTotal\": \"29111.07\",\n        \"moneda\": \"ARS\",\n        \"id\": 4\n    }\n]"
						}
					]
				}
			]
		},
		{
			"name": "cotizacion-dolar",
			"item": [
				{
					"name": "localhost:8097/api/cotizacion-dolar",
					"request": {
						"method": "GET",
						"header": [],
						"url": {
							"raw": "localhost:8097/api/cotizacion-dolar",
							"host": [
								"localhost"
							],
							"port": "8097",
							"path": [
								"api",
								"cotizacion-dolar"
							]
						}
					},
					"response": [
						{
							"name": "localhost:8097/api/cotizacion-dolar",
							"originalRequest": {
								"method": "GET",
								"header": [],
								"url": {
									"raw": "localhost:8097/api/cotizacion-dolar",
									"host": [
										"localhost"
									],
									"port": "8097",
									"path": [
										"api",
										"cotizacion-dolar"
									]
								}
							},
							"status": "OK",
							"code": 200,
							"_postman_previewlanguage": "json",
							"header": [
								{
									"key": "Content-Type",
									"value": "application/json;charset=UTF-8"
								},
								{
									"key": "Transfer-Encoding",
									"value": "chunked"
								},
								{
									"key": "Date",
									"value": "Tue, 28 May 2019 05:24:28 GMT"
								}
							],
							"cookie": [],
							"body": "{\n    \"libre\": 44.95\n}"
						}
					]
				}
			]
		},
		{
			"name": "total",
			"item": [
				{
					"name": "localhost:8097/api/detalle-activo",
					"request": {
						"method": "GET",
						"header": [],
						"url": {
							"raw": "localhost:8097/api/detalle-activo",
							"host": [
								"localhost"
							],
							"port": "8097",
							"path": [
								"api",
								"detalle-activo"
							]
						}
					},
					"response": [
						{
							"name": "localhost:8097/api/detalle-activo",
							"originalRequest": {
								"method": "GET",
								"header": [],
								"url": {
									"raw": "localhost:8097/api/detalle-activo",
									"host": [
										"localhost"
									],
									"port": "8097",
									"path": [
										"api",
										"detalle-activo"
									]
								}
							},
							"status": "OK",
							"code": 200,
							"_postman_previewlanguage": "json",
							"header": [
								{
									"key": "Content-Type",
									"value": "application/json;charset=UTF-8"
								},
								{
									"key": "Transfer-Encoding",
									"value": "chunked"
								},
								{
									"key": "Date",
									"value": "Tue, 28 May 2019 05:24:55 GMT"
								}
							],
							"cookie": [],
							"body": "[\n    {\n        \"tipoMoneda\": \"ARS\",\n        \"montoInicial\": \"36.20\",\n        \"montoActual\": \"392.31\",\n        \"gananciaParcial\": \"17.11\",\n        \"gananciaTotal\": \"312.11\"\n    }\n]"
						}
					]
				}
			]
		},
		{
			"name": "activo",
			"item": [
				{
					"name": "localhost:8097/api/activo/{idActivo}",
					"request": {
						"method": "DELETE",
						"header": [],
						"url": {
							"raw": "localhost:8097/api/activo/{idActivo}",
							"host": [
								"localhost"
							],
							"port": "8097",
							"path": [
								"api",
								"activo",
								"{idActivo}"
							]
						}
					},
					"response": []
				}
			]
		},
		{
			"name": "movimiento",
			"item": [
				{
					"name": "localhost:8097/api/movimiento",
					"request": {
						"method": "POST",
						"header": [
							{
								"key": "Content-Type",
								"name": "Content-Type",
								"value": "application/json",
								"type": "text"
							}
						],
						"body": {
							"mode": "raw",
							"raw": "{\n\t\"id\": 1,\n\t\"montoActual\": 50\n}"
						},
						"url": {
							"raw": "localhost:8097/api/movimiento",
							"host": [
								"localhost"
							],
							"port": "8097",
							"path": [
								"api",
								"movimiento"
							]
						}
					},
					"response": []
				},
				{
					"name": "localhost:8097/api/activo",
					"request": {
						"method": "POST",
						"header": [
							{
								"key": "Content-Type",
								"name": "Content-Type",
								"value": "application/json",
								"type": "text"
							}
						],
						"body": {
							"mode": "raw",
							"raw": "{\n\t\"nombre\": \"LEBAC\",\n\t\"montoActual\": 50,\n\t\"moneda\": \"ARS\"\n}"
						},
						"url": {
							"raw": "localhost:8097/api/activo",
							"host": [
								"localhost"
							],
							"port": "8097",
							"path": [
								"api",
								"activo"
							]
						},
						"description": "Inicializar un activo"
					},
					"response": []
				},
				{
					"name": "localhost:8097/api/movimiento/inversion-nueva",
					"request": {
						"method": "POST",
						"header": [],
						"url": {
							"raw": "localhost:8097/api/movimiento/inversion-nueva?activoId={id}&monto={monto}",
							"host": [
								"localhost"
							],
							"port": "8097",
							"path": [
								"api",
								"movimiento",
								"inversion-nueva"
							],
							"query": [
								{
									"key": "activoId",
									"value": "{id}"
								},
								{
									"key": "monto",
									"value": "{monto}"
								}
							]
						}
					},
					"response": []
				},
				{
					"name": "localhost:8097/api/movimiento/rescate",
					"request": {
						"method": "POST",
						"header": [],
						"body": {
							"mode": "raw",
							"raw": ""
						},
						"url": {
							"raw": "localhost:8097/api/movimiento/rescate?activoId={id}&monto={monto}",
							"host": [
								"localhost"
							],
							"port": "8097",
							"path": [
								"api",
								"movimiento",
								"rescate"
							],
							"query": [
								{
									"key": "activoId",
									"value": "{id}"
								},
								{
									"key": "monto",
									"value": "{monto}"
								}
							]
						}
					},
					"response": []
				}
			]
		}
	]
}